{
  "version": "0.3.14-fixed",
  "steps": [
    {
      "tag": "CreateSource",
      "source": "db"
    },
    {
      "tag": "CreateArgument",
      "location": {
        "tag": "Source",
        "source": "db"
      },
      "argument": "provider",
      "value": "\"postgresql\""
    },
    {
      "tag": "CreateArgument",
      "location": {
        "tag": "Source",
        "source": "db"
      },
      "argument": "url",
      "value": "\"***\""
    },
    {
      "tag": "CreateModel",
      "model": "Answers"
    },
    {
      "tag": "CreateField",
      "model": "Answers",
      "field": "answer",
      "type": "String",
      "arity": "Required"
    },
    {
      "tag": "CreateField",
      "model": "Answers",
      "field": "answeredAt",
      "type": "DateTime",
      "arity": "Required"
    },
    {
      "tag": "CreateDirective",
      "location": {
        "path": {
          "tag": "Field",
          "model": "Answers",
          "field": "answeredAt"
        },
        "directive": "default"
      }
    },
    {
      "tag": "CreateArgument",
      "location": {
        "tag": "Directive",
        "path": {
          "tag": "Field",
          "model": "Answers",
          "field": "answeredAt"
        },
        "directive": "default"
      },
      "argument": "",
      "value": "now()"
    },
    {
      "tag": "CreateField",
      "model": "Answers",
      "field": "examerNote",
      "type": "String",
      "arity": "Optional"
    },
    {
      "tag": "CreateField",
      "model": "Answers",
      "field": "examId",
      "type": "Int",
      "arity": "Required"
    },
    {
      "tag": "CreateField",
      "model": "Answers",
      "field": "examinatedUserId",
      "type": "Int",
      "arity": "Optional"
    },
    {
      "tag": "CreateField",
      "model": "Answers",
      "field": "getScored",
      "type": "Int",
      "arity": "Optional"
    },
    {
      "tag": "CreateField",
      "model": "Answers",
      "field": "id",
      "type": "Int",
      "arity": "Required"
    },
    {
      "tag": "CreateDirective",
      "location": {
        "path": {
          "tag": "Field",
          "model": "Answers",
          "field": "id"
        },
        "directive": "id"
      }
    },
    {
      "tag": "CreateDirective",
      "location": {
        "path": {
          "tag": "Field",
          "model": "Answers",
          "field": "id"
        },
        "directive": "default"
      }
    },
    {
      "tag": "CreateArgument",
      "location": {
        "tag": "Directive",
        "path": {
          "tag": "Field",
          "model": "Answers",
          "field": "id"
        },
        "directive": "default"
      },
      "argument": "",
      "value": "dbgenerated()"
    },
    {
      "tag": "CreateField",
      "model": "Answers",
      "field": "isCorrectAnswer",
      "type": "Boolean",
      "arity": "Optional"
    },
    {
      "tag": "CreateField",
      "model": "Answers",
      "field": "isRated",
      "type": "Boolean",
      "arity": "Optional"
    },
    {
      "tag": "CreateDirective",
      "location": {
        "path": {
          "tag": "Field",
          "model": "Answers",
          "field": "isRated"
        },
        "directive": "default"
      }
    },
    {
      "tag": "CreateArgument",
      "location": {
        "tag": "Directive",
        "path": {
          "tag": "Field",
          "model": "Answers",
          "field": "isRated"
        },
        "directive": "default"
      },
      "argument": "",
      "value": "false"
    },
    {
      "tag": "CreateField",
      "model": "Answers",
      "field": "question",
      "type": "String",
      "arity": "Required"
    },
    {
      "tag": "CreateField",
      "model": "Answers",
      "field": "questionId",
      "type": "Int",
      "arity": "Required"
    },
    {
      "tag": "CreateField",
      "model": "Answers",
      "field": "Exams",
      "type": "Exams",
      "arity": "Required"
    },
    {
      "tag": "CreateDirective",
      "location": {
        "path": {
          "tag": "Field",
          "model": "Answers",
          "field": "Exams"
        },
        "directive": "relation"
      }
    },
    {
      "tag": "CreateArgument",
      "location": {
        "tag": "Directive",
        "path": {
          "tag": "Field",
          "model": "Answers",
          "field": "Exams"
        },
        "directive": "relation"
      },
      "argument": "fields",
      "value": "[examId]"
    },
    {
      "tag": "CreateArgument",
      "location": {
        "tag": "Directive",
        "path": {
          "tag": "Field",
          "model": "Answers",
          "field": "Exams"
        },
        "directive": "relation"
      },
      "argument": "references",
      "value": "[id]"
    },
    {
      "tag": "CreateField",
      "model": "Answers",
      "field": "User",
      "type": "User",
      "arity": "Optional"
    },
    {
      "tag": "CreateDirective",
      "location": {
        "path": {
          "tag": "Field",
          "model": "Answers",
          "field": "User"
        },
        "directive": "relation"
      }
    },
    {
      "tag": "CreateArgument",
      "location": {
        "tag": "Directive",
        "path": {
          "tag": "Field",
          "model": "Answers",
          "field": "User"
        },
        "directive": "relation"
      },
      "argument": "fields",
      "value": "[examinatedUserId]"
    },
    {
      "tag": "CreateArgument",
      "location": {
        "tag": "Directive",
        "path": {
          "tag": "Field",
          "model": "Answers",
          "field": "User"
        },
        "directive": "relation"
      },
      "argument": "references",
      "value": "[id]"
    },
    {
      "tag": "CreateField",
      "model": "Answers",
      "field": "Questions",
      "type": "Questions",
      "arity": "Required"
    },
    {
      "tag": "CreateDirective",
      "location": {
        "path": {
          "tag": "Field",
          "model": "Answers",
          "field": "Questions"
        },
        "directive": "relation"
      }
    },
    {
      "tag": "CreateArgument",
      "location": {
        "tag": "Directive",
        "path": {
          "tag": "Field",
          "model": "Answers",
          "field": "Questions"
        },
        "directive": "relation"
      },
      "argument": "fields",
      "value": "[questionId]"
    },
    {
      "tag": "CreateArgument",
      "location": {
        "tag": "Directive",
        "path": {
          "tag": "Field",
          "model": "Answers",
          "field": "Questions"
        },
        "directive": "relation"
      },
      "argument": "references",
      "value": "[id]"
    },
    {
      "tag": "CreateDirective",
      "location": {
        "path": {
          "tag": "Model",
          "model": "Answers",
          "arguments": [
            {
              "name": "",
              "value": "[examId]"
            },
            {
              "name": "name",
              "value": "\"fki_answer-exam-relation\""
            }
          ]
        },
        "directive": "index"
      }
    },
    {
      "tag": "CreateDirective",
      "location": {
        "path": {
          "tag": "Model",
          "model": "Answers",
          "arguments": [
            {
              "name": "",
              "value": "[questionId]"
            },
            {
              "name": "name",
              "value": "\"fki_answer-question-relation\""
            }
          ]
        },
        "directive": "index"
      }
    },
    {
      "tag": "CreateDirective",
      "location": {
        "path": {
          "tag": "Model",
          "model": "Answers",
          "arguments": [
            {
              "name": "",
              "value": "[examinatedUserId]"
            },
            {
              "name": "name",
              "value": "\"fki_answer-user-exam\""
            }
          ]
        },
        "directive": "index"
      }
    },
    {
      "tag": "CreateModel",
      "model": "Exams"
    },
    {
      "tag": "CreateField",
      "model": "Exams",
      "field": "activeCode",
      "type": "String",
      "arity": "Required"
    },
    {
      "tag": "CreateField",
      "model": "Exams",
      "field": "createAt",
      "type": "DateTime",
      "arity": "Required"
    },
    {
      "tag": "CreateDirective",
      "location": {
        "path": {
          "tag": "Field",
          "model": "Exams",
          "field": "createAt"
        },
        "directive": "default"
      }
    },
    {
      "tag": "CreateArgument",
      "location": {
        "tag": "Directive",
        "path": {
          "tag": "Field",
          "model": "Exams",
          "field": "createAt"
        },
        "directive": "default"
      },
      "argument": "",
      "value": "now()"
    },
    {
      "tag": "CreateField",
      "model": "Exams",
      "field": "endDate",
      "type": "DateTime",
      "arity": "Optional"
    },
    {
      "tag": "CreateField",
      "model": "Exams",
      "field": "examDetails",
      "type": "String",
      "arity": "Optional"
    },
    {
      "tag": "CreateField",
      "model": "Exams",
      "field": "examerNick",
      "type": "String",
      "arity": "Required"
    },
    {
      "tag": "CreateField",
      "model": "Exams",
      "field": "examinatedUserId",
      "type": "Int",
      "arity": "Required"
    },
    {
      "tag": "CreateField",
      "model": "Exams",
      "field": "examSubject",
      "type": "String",
      "arity": "Required"
    },
    {
      "tag": "CreateField",
      "model": "Exams",
      "field": "genQuestionsId",
      "type": "Int",
      "arity": "List"
    },
    {
      "tag": "CreateField",
      "model": "Exams",
      "field": "id",
      "type": "Int",
      "arity": "Required"
    },
    {
      "tag": "CreateDirective",
      "location": {
        "path": {
          "tag": "Field",
          "model": "Exams",
          "field": "id"
        },
        "directive": "id"
      }
    },
    {
      "tag": "CreateDirective",
      "location": {
        "path": {
          "tag": "Field",
          "model": "Exams",
          "field": "id"
        },
        "directive": "default"
      }
    },
    {
      "tag": "CreateArgument",
      "location": {
        "tag": "Directive",
        "path": {
          "tag": "Field",
          "model": "Exams",
          "field": "id"
        },
        "directive": "default"
      },
      "argument": "",
      "value": "dbgenerated()"
    },
    {
      "tag": "CreateField",
      "model": "Exams",
      "field": "isActive",
      "type": "Boolean",
      "arity": "Optional"
    },
    {
      "tag": "CreateDirective",
      "location": {
        "path": {
          "tag": "Field",
          "model": "Exams",
          "field": "isActive"
        },
        "directive": "default"
      }
    },
    {
      "tag": "CreateArgument",
      "location": {
        "tag": "Directive",
        "path": {
          "tag": "Field",
          "model": "Exams",
          "field": "isActive"
        },
        "directive": "default"
      },
      "argument": "",
      "value": "false"
    },
    {
      "tag": "CreateField",
      "model": "Exams",
      "field": "isPassed",
      "type": "Boolean",
      "arity": "Optional"
    },
    {
      "tag": "CreateDirective",
      "location": {
        "path": {
          "tag": "Field",
          "model": "Exams",
          "field": "isPassed"
        },
        "directive": "default"
      }
    },
    {
      "tag": "CreateArgument",
      "location": {
        "tag": "Directive",
        "path": {
          "tag": "Field",
          "model": "Exams",
          "field": "isPassed"
        },
        "directive": "default"
      },
      "argument": "",
      "value": "false"
    },
    {
      "tag": "CreateField",
      "model": "Exams",
      "field": "minScoreToPass",
      "type": "Int",
      "arity": "Required"
    },
    {
      "tag": "CreateField",
      "model": "Exams",
      "field": "score",
      "type": "Int",
      "arity": "Optional"
    },
    {
      "tag": "CreateDirective",
      "location": {
        "path": {
          "tag": "Field",
          "model": "Exams",
          "field": "score"
        },
        "directive": "default"
      }
    },
    {
      "tag": "CreateArgument",
      "location": {
        "tag": "Directive",
        "path": {
          "tag": "Field",
          "model": "Exams",
          "field": "score"
        },
        "directive": "default"
      },
      "argument": "",
      "value": "0"
    },
    {
      "tag": "CreateField",
      "model": "Exams",
      "field": "startDate",
      "type": "DateTime",
      "arity": "Optional"
    },
    {
      "tag": "CreateField",
      "model": "Exams",
      "field": "User",
      "type": "User",
      "arity": "Required"
    },
    {
      "tag": "CreateDirective",
      "location": {
        "path": {
          "tag": "Field",
          "model": "Exams",
          "field": "User"
        },
        "directive": "relation"
      }
    },
    {
      "tag": "CreateArgument",
      "location": {
        "tag": "Directive",
        "path": {
          "tag": "Field",
          "model": "Exams",
          "field": "User"
        },
        "directive": "relation"
      },
      "argument": "fields",
      "value": "[examinatedUserId]"
    },
    {
      "tag": "CreateArgument",
      "location": {
        "tag": "Directive",
        "path": {
          "tag": "Field",
          "model": "Exams",
          "field": "User"
        },
        "directive": "relation"
      },
      "argument": "references",
      "value": "[id]"
    },
    {
      "tag": "CreateField",
      "model": "Exams",
      "field": "Answers",
      "type": "Answers",
      "arity": "List"
    },
    {
      "tag": "CreateDirective",
      "location": {
        "path": {
          "tag": "Model",
          "model": "Exams",
          "arguments": [
            {
              "name": "",
              "value": "[examinatedUserId]"
            },
            {
              "name": "name",
              "value": "\"fki_asfdsfsdfsd\""
            }
          ]
        },
        "directive": "index"
      }
    },
    {
      "tag": "CreateModel",
      "model": "Questions"
    },
    {
      "tag": "CreateField",
      "model": "Questions",
      "field": "content",
      "type": "String",
      "arity": "Required"
    },
    {
      "tag": "CreateField",
      "model": "Questions",
      "field": "correctAnswer",
      "type": "String",
      "arity": "Optional"
    },
    {
      "tag": "CreateField",
      "model": "Questions",
      "field": "id",
      "type": "Int",
      "arity": "Required"
    },
    {
      "tag": "CreateDirective",
      "location": {
        "path": {
          "tag": "Field",
          "model": "Questions",
          "field": "id"
        },
        "directive": "id"
      }
    },
    {
      "tag": "CreateDirective",
      "location": {
        "path": {
          "tag": "Field",
          "model": "Questions",
          "field": "id"
        },
        "directive": "default"
      }
    },
    {
      "tag": "CreateArgument",
      "location": {
        "tag": "Directive",
        "path": {
          "tag": "Field",
          "model": "Questions",
          "field": "id"
        },
        "directive": "default"
      },
      "argument": "",
      "value": "dbgenerated()"
    },
    {
      "tag": "CreateField",
      "model": "Questions",
      "field": "image",
      "type": "String",
      "arity": "Optional"
    },
    {
      "tag": "CreateField",
      "model": "Questions",
      "field": "odpA",
      "type": "String",
      "arity": "Optional"
    },
    {
      "tag": "CreateField",
      "model": "Questions",
      "field": "odpB",
      "type": "String",
      "arity": "Optional"
    },
    {
      "tag": "CreateField",
      "model": "Questions",
      "field": "odpC",
      "type": "String",
      "arity": "Optional"
    },
    {
      "tag": "CreateField",
      "model": "Questions",
      "field": "odpD",
      "type": "String",
      "arity": "Optional"
    },
    {
      "tag": "CreateField",
      "model": "Questions",
      "field": "score",
      "type": "Int",
      "arity": "Required"
    },
    {
      "tag": "CreateField",
      "model": "Questions",
      "field": "type",
      "type": "String",
      "arity": "Required"
    },
    {
      "tag": "CreateField",
      "model": "Questions",
      "field": "Answers",
      "type": "Answers",
      "arity": "List"
    },
    {
      "tag": "CreateModel",
      "model": "User"
    },
    {
      "tag": "CreateField",
      "model": "User",
      "field": "createAt",
      "type": "DateTime",
      "arity": "Required"
    },
    {
      "tag": "CreateDirective",
      "location": {
        "path": {
          "tag": "Field",
          "model": "User",
          "field": "createAt"
        },
        "directive": "default"
      }
    },
    {
      "tag": "CreateArgument",
      "location": {
        "tag": "Directive",
        "path": {
          "tag": "Field",
          "model": "User",
          "field": "createAt"
        },
        "directive": "default"
      },
      "argument": "",
      "value": "now()"
    },
    {
      "tag": "CreateField",
      "model": "User",
      "field": "email",
      "type": "String",
      "arity": "Required"
    },
    {
      "tag": "CreateField",
      "model": "User",
      "field": "id",
      "type": "Int",
      "arity": "Required"
    },
    {
      "tag": "CreateDirective",
      "location": {
        "path": {
          "tag": "Field",
          "model": "User",
          "field": "id"
        },
        "directive": "id"
      }
    },
    {
      "tag": "CreateDirective",
      "location": {
        "path": {
          "tag": "Field",
          "model": "User",
          "field": "id"
        },
        "directive": "default"
      }
    },
    {
      "tag": "CreateArgument",
      "location": {
        "tag": "Directive",
        "path": {
          "tag": "Field",
          "model": "User",
          "field": "id"
        },
        "directive": "default"
      },
      "argument": "",
      "value": "dbgenerated()"
    },
    {
      "tag": "CreateField",
      "model": "User",
      "field": "isActive",
      "type": "Boolean",
      "arity": "Required"
    },
    {
      "tag": "CreateDirective",
      "location": {
        "path": {
          "tag": "Field",
          "model": "User",
          "field": "isActive"
        },
        "directive": "default"
      }
    },
    {
      "tag": "CreateArgument",
      "location": {
        "tag": "Directive",
        "path": {
          "tag": "Field",
          "model": "User",
          "field": "isActive"
        },
        "directive": "default"
      },
      "argument": "",
      "value": "true"
    },
    {
      "tag": "CreateField",
      "model": "User",
      "field": "isOnExam",
      "type": "Boolean",
      "arity": "Required"
    },
    {
      "tag": "CreateDirective",
      "location": {
        "path": {
          "tag": "Field",
          "model": "User",
          "field": "isOnExam"
        },
        "directive": "default"
      }
    },
    {
      "tag": "CreateArgument",
      "location": {
        "tag": "Directive",
        "path": {
          "tag": "Field",
          "model": "User",
          "field": "isOnExam"
        },
        "directive": "default"
      },
      "argument": "",
      "value": "false"
    },
    {
      "tag": "CreateField",
      "model": "User",
      "field": "nick",
      "type": "String",
      "arity": "Required"
    },
    {
      "tag": "CreateField",
      "model": "User",
      "field": "password",
      "type": "String",
      "arity": "Required"
    },
    {
      "tag": "CreateField",
      "model": "User",
      "field": "role",
      "type": "Int",
      "arity": "Required"
    },
    {
      "tag": "CreateDirective",
      "location": {
        "path": {
          "tag": "Field",
          "model": "User",
          "field": "role"
        },
        "directive": "default"
      }
    },
    {
      "tag": "CreateArgument",
      "location": {
        "tag": "Directive",
        "path": {
          "tag": "Field",
          "model": "User",
          "field": "role"
        },
        "directive": "default"
      },
      "argument": "",
      "value": "0"
    },
    {
      "tag": "CreateField",
      "model": "User",
      "field": "Answers",
      "type": "Answers",
      "arity": "List"
    },
    {
      "tag": "CreateField",
      "model": "User",
      "field": "Exams",
      "type": "Exams",
      "arity": "List"
    }
  ]
}